<?xml version="1.0" standalone="no"?>
<!DOCTYPE svg PUBLIC "-//W3C//DTD SVG 20010904//EN"
 "http://www.w3.org/TR/2001/REC-SVG-20010904/DTD/svg10.dtd">
<svg version="1.0" xmlns="http://www.w3.org/2000/svg"
 width="150.000000pt" height="150.000000pt" viewBox="0 0 150.000000 150.000000"
 preserveAspectRatio="xMidYMid meet">

<g transform="translate(0.000000,150.000000) scale(0.100000,-0.100000)"
fill="#000000" stroke="none">
<path d="M726 1484 c-3 -9 -6 -33 -6 -55 0 -34 -3 -39 -23 -39 -96 0 -219 -81
-294 -193 -84 -125 -133 -283 -158 -512 -21 -185 -62 -302 -130 -370 -27 -27
-59 -55 -70 -62 -16 -9 52 -12 320 -12 l340 -1 -3 -83 c-3 -59 1 -94 12 -120
17 -42 34 -46 62 -16 16 18 19 37 19 120 l0 99 345 1 c272 0 341 3 325 12 -11
7 -43 35 -70 62 -72 72 -114 194 -135 395 -39 383 -204 647 -422 676 -44 6
-48 9 -48 35 0 44 -17 79 -39 79 -10 0 -22 -7 -25 -16z"/>
</g>
</svg>
