{
    "prepare_queue": {
        "installed": [],
        "uninstalled": []
    },
    "config_munge": {
        "files": {}
    },
    "installed_plugins": {
        "cordova-plugin-dialogs": {
            "PACKAGE_NAME": "com.buzzloopapp.app"
        },
        "cordova-plugin-geolocation": {
            "PACKAGE_NAME": "com.buzzloopapp.app"
        },
        "cordova-plugin-splashscreen": {
            "PACKAGE_NAME": "com.buzzloopapp.app"
        },
        "cordova-plugin-statusbar": {
            "PACKAGE_NAME": "com.buzzloopapp.app"
        },
        "cordova-plugin-whitelist": {
            "PACKAGE_NAME": "com.buzzloopapp.app"
        },
        "cordova-plugin-actionsheet": {
            "PACKAGE_NAME": "com.buzzloopapp.app"
        }
    },
    "dependent_plugins": {
        "cordova-plugin-compat": {
            "PACKAGE_NAME": "com.buzzloopapp.app"
        }
    }
}