{
    "cordova-plugin-dialogs": {
        "source": {
            "type": "registry",
            "id": "cordova-plugin-dialogs@^1.3.3"
        },
        "is_top_level": true,
        "variables": {}
    },
    "cordova-plugin-geolocation": {
        "source": {
            "type": "registry",
            "id": "cordova-plugin-geolocation@^2.4.3"
        },
        "is_top_level": true,
        "variables": {
            "GEOLOCATION_USAGE_DESCRIPTION": " "
        }
    },
    "cordova-plugin-compat": {
        "source": {
            "type": "registry",
            "id": "cordova-plugin-compat@^1.0.0"
        },
        "is_top_level": false,
        "variables": {}
    },
    "cordova-plugin-splashscreen": {
        "source": {
            "type": "registry",
            "id": "cordova-plugin-splashscreen@^4.0.3"
        },
        "is_top_level": true,
        "variables": {}
    },
    "cordova-plugin-statusbar": {
        "source": {
            "type": "registry",
            "id": "cordova-plugin-statusbar@^2.2.3"
        },
        "is_top_level": true,
        "variables": {}
    },
    "cordova-plugin-whitelist": {
        "source": {
            "type": "registry",
            "id": "cordova-plugin-whitelist@^1.3.2"
        },
        "is_top_level": true,
        "variables": {}
    },
    "cordova-plugin-actionsheet": {
        "source": {
            "type": "registry",
            "id": "cordova-plugin-actionsheet"
        },
        "is_top_level": true,
        "variables": {}
    }
}